{"data":[{"id":967,"rfq_id":2893,"product_name":" DV-2250SKU","internal_sku":" DV-2250SKU","type":"PRODUCT","current_avg_cost":0,"total_inventory_value":0,"recent_avg_cogs":0,"latest_cogs":0,"cost_complexity":0,"inventory_value":0,"reorder_value_required":0,"annual_stock_turn":0,"cogs_variance":0,"cogs_variance_percent":0,"days_of_cash_tied_up":0,"cost_inflation_trend":0,"obsolescence_risk_value":0,"qty_onhand":0,"qty_incoming":0,"qty_pending":0,"sale_within_7_days":0,"sale_within_14_days":0,"sale_within_30_days":0,"sale_within_45_days":0,"sale_within_60_days":0,"sale_within_90_days":0,"sale_within_120_days":0,"sale_within_180_days":0,"sale_within_365_days":0,"sale_velocity_7_days":0,"sale_velocity_14_days":0,"sale_velocity_30_days":0,"sale_velocity_45_days":0,"sale_velocity_60_days":0,"sale_velocity_90_days":0,"sale_velocity_120_days":0,"sale_velocity_180_days":0,"sale_velocity_365_days":0,"last_7_days_trend":0,"available_and_ordered_qty":0,"available_qty":0,"quantity_available":0,"days_onhand_7_day_vel":null,"days_onhand_14_day_vel":null,"days_onhand_30_day_vel":null,"days_onhand_45_day_vel":null,"days_onhand_60_day_vel":null,"lead_time":40,"moq":0,"safety_stock":0,"reorder_point":0,"recommend_order_date":null,"recommend_order_date_14day":null,"recommend_order_date_30day":null,"recommend_order_date_45day":null,"recommend_order_date_90day":null,"recommend_order_date_120day":null,"order_qty_lead_time_safety":0,"order_qty_30_day":0,"order_qty_45_day":0,"order_qty_60_day":0,"order_qty_90_day":0,"order_qty_120_day":0,"overstocked":false,"total_produced_planned_quantity":0,"revenue_within_7_days":0,"revenue_within_14_days":0,"revenue_within_30_days":0,"revenue_within_45_days":0,"revenue_within_60_days":0,"revenue_within_90_days":0,"revenue_within_120_days":0,"revenue_within_180_days":0,"revenue_within_365_days":0,"sale_mtd":0,"sale_ytd":0,"revenue_mtd":0,"revenue_ytd":0,"sale_last_january":0,"sale_last_february":0,"sale_last_march":0,"sale_last_april":0,"sale_last_may":0,"sale_last_june":0,"sale_last_july":0,"sale_last_august":0,"sale_last_september":0,"sale_last_october":0,"sale_last_november":0,"sale_last_december":0,"revenue_last_january":0,"revenue_last_february":0,"revenue_last_march":0,"revenue_last_april":0,"revenue_last_may":0,"revenue_last_june":0,"revenue_last_july":0,"revenue_last_august":0,"revenue_last_september":0,"revenue_last_october":0,"revenue_last_november":0,"revenue_last_december":0,"refreshed_at":"2026-01-28T13:30:03.000000Z","created_at":"2026-01-28T13:30:03.000000Z","updated_at":"2026-01-28T13:30:03.000000Z"},{"id":585,"rfq_id":2511,"product_name":"#5","internal_sku":"CC-0011-ACHM-002","type":"PRODUCT","current_avg_cost":0,"total_inventory_value":0,"recent_avg_cogs":0,"latest_cogs":0,"cost_complexity":0,"inventory_value":0,"reorder_value_required":0,"annual_stock_turn":0,"cogs_variance":0,"cogs_variance_percent":0,"days_of_cash_tied_up":0,"cost_inflation_trend":0,"obsolescence_risk_value":0,"qty_onhand":0,"qty_incoming":0,"qty_pending":0,"sale_within_7_days":0,"sale_within_14_days":0,"sale_within_30_days":0,"sale_within_45_days":0,"sale_within_60_days":0,"sale_within_90_days":0,"sale_within_120_days":0,"sale_within_180_days":0,"sale_within_365_days":0,"sale_velocity_7_days":0,"sale_velocity_14_days":0,"sale_velocity_30_days":0,"sale_velocity_45_days":0,"sale_velocity_60_days":0,"sale_velocity_90_days":0,"sale_velocity_120_days":0,"sale_velocity_180_days":0,"sale_velocity_365_days":0,"last_7_days_trend":0,"available_and_ordered_qty":0,"available_qty":0,"quantity_available":0,"days_onhand_7_day_vel":null,"days_onhand_14_day_vel":null,"days_onhand_30_day_vel":null,"days_onhand_45_day_vel":null,"days_onhand_60_day_vel":null,"lead_time":40,"moq":0,"safety_stock":0,"reorder_point":0,"recommend_order_date":null,"recommend_order_date_14day":null,"recommend_order_date_30day":null,"recommend_order_date_45day":null,"recommend_order_date_90day":null,"recommend_order_date_120day":null,"order_qty_lead_time_safety":0,"order_qty_30_day":0,"order_qty_45_day":0,"order_qty_60_day":0,"order_qty_90_day":0,"order_qty_120_day":0,"overstocked":false,"total_produced_planned_quantity":0,"revenue_within_7_days":0,"revenue_within_14_days":0,"revenue_within_30_days":0,"revenue_within_45_days":0,"revenue_within_60_days":0,"revenue_within_90_days":0,"revenue_within_120_days":0,"revenue_within_180_days":0,"revenue_within_365_days":0,"sale_mtd":0,"sale_ytd":0,"revenue_mtd":0,"revenue_ytd":0,"sale_last_january":0,"sale_last_february":0,"sale_last_march":0,"sale_last_april":0,"sale_last_may":0,"sale_last_june":0,"sale_last_july":0,"sale_last_august":0,"sale_last_september":0,"sale_last_october":0,"sale_last_november":0,"sale_last_december":0,"revenue_last_january":0,"revenue_last_february":0,"revenue_last_march":0,"revenue_last_april":0,"revenue_last_may":0,"revenue_last_june":0,"revenue_last_july":0,"revenue_last_august":0,"revenue_last_september":0,"revenue_last_october":0,"revenue_last_november":0,"revenue_last_december":0,"refreshed_at":"2026-01-28T13:30:03.000000Z","created_at":"2026-01-28T13:30:03.000000Z","updated_at":"2026-01-28T13:30:03.000000Z"},{"id":1064,"rfq_id":2990,"product_name":"04052024","internal_sku":"04052024","type":"PRODUCT","current_avg_cost":0,"total_inventory_value":0,"recent_avg_cogs":0,"latest_cogs":0,"cost_complexity":0,"inventory_value":0,"reorder_value_required":0,"annual_stock_turn":0,"cogs_variance":0,"cogs_variance_percent":0,"days_of_cash_tied_up":0,"cost_inflation_trend":0,"obsolescence_risk_value":0,"qty_onhand":0,"qty_incoming":0,"qty_pending":1,"sale_within_7_days":0,"sale_within_14_days":0,"sale_within_30_days":0,"sale_within_45_days":0,"sale_within_60_days":0,"sale_within_90_days":0,"sale_within_120_days":0,"sale_within_180_days":0,"sale_within_365_days":0,"sale_velocity_7_days":0,"sale_velocity_14_days":0,"sale_velocity_30_days":0,"sale_velocity_45_days":0,"sale_velocity_60_days":0,"sale_velocity_90_days":0,"sale_velocity_120_days":0,"sale_velocity_180_days":0,"sale_velocity_365_days":0,"last_7_days_trend":0,"available_and_ordered_qty":-1,"available_qty":-1,"quantity_available":-1,"days_onhand_7_day_vel":null,"days_onhand_14_day_vel":null,"days_onhand_30_day_vel":null,"days_onhand_45_day_vel":null,"days_onhand_60_day_vel":null,"lead_time":40,"moq":0,"safety_stock":0,"reorder_point":0,"recommend_order_date":null,"recommend_order_date_14day":null,"recommend_order_date_30day":null,"recommend_order_date_45day":null,"recommend_order_date_90day":null,"recommend_order_date_120day":null,"order_qty_lead_time_safety":0,"order_qty_30_day":0,"order_qty_45_day":0,"order_qty_60_day":0,"order_qty_90_day":0,"order_qty_120_day":0,"overstocked":false,"total_produced_planned_quantity":0,"revenue_within_7_days":0,"revenue_within_14_days":0,"revenue_within_30_days":0,"revenue_within_45_days":0,"revenue_within_60_days":0,"revenue_within_90_days":0,"revenue_within_120_days":0,"revenue_within_180_days":0,"revenue_within_365_days":0,"sale_mtd":0,"sale_ytd":0,"revenue_mtd":0,"revenue_ytd":0,"sale_last_january":0,"sale_last_february":0,"sale_last_march":0,"sale_last_april":0,"sale_last_may":0,"sale_last_june":0,"sale_last_july":0,"sale_last_august":0,"sale_last_september":0,"sale_last_october":0,"sale_last_november":0,"sale_last_december":0,"revenue_last_january":0,"revenue_last_february":0,"revenue_last_march":0,"revenue_last_april":0,"revenue_last_may":0,"revenue_last_june":0,"revenue_last_july":0,"revenue_last_august":0,"revenue_last_september":0,"revenue_last_october":0,"revenue_last_november":0,"revenue_last_december":0,"refreshed_at":"2026-01-28T13:30:03.000000Z","created_at":"2026-01-28T13:30:03.000000Z","updated_at":"2026-01-28T13:30:03.000000Z"},{"id":1083,"rfq_id":3009,"product_name":"04052024-b","internal_sku":"04052024-b","type":"PRODUCT","current_avg_cost":0,"total_inventory_value":0,"recent_avg_cogs":0,"latest_cogs":0,"cost_complexity":0,"inventory_value":0,"reorder_value_required":0,"annual_stock_turn":0,"cogs_variance":0,"cogs_variance_percent":0,"days_of_cash_tied_up":0,"cost_inflation_trend":0,"obsolescence_risk_value":0,"qty_onhand":0,"qty_incoming":0,"qty_pending":1,"sale_within_7_days":0,"sale_within_14_days":0,"sale_within_30_days":0,"sale_within_45_days":0,"sale_within_60_days":0,"sale_within_90_days":0,"sale_within_120_days":0,"sale_within_180_days":0,"sale_within_365_days":0,"sale_velocity_7_days":0,"sale_velocity_14_days":0,"sale_velocity_30_days":0,"sale_velocity_45_days":0,"sale_velocity_60_days":0,"sale_velocity_90_days":0,"sale_velocity_120_days":0,"sale_velocity_180_days":0,"sale_velocity_365_days":0,"last_7_days_trend":0,"available_and_ordered_qty":-1,"available_qty":-1,"quantity_available":-1,"days_onhand_7_day_vel":null,"days_onhand_14_day_vel":null,"days_onhand_30_day_vel":null,"days_onhand_45_day_vel":null,"days_onhand_60_day_vel":null,"lead_time":40,"moq":0,"safety_stock":0,"reorder_point":0,"recommend_order_date":null,"recommend_order_date_14day":null,"recommend_order_date_30day":null,"recommend_order_date_45day":null,"recommend_order_date_90day":null,"recommend_order_date_120day":null,"order_qty_lead_time_safety":0,"order_qty_30_day":0,"order_qty_45_day":0,"order_qty_60_day":0,"order_qty_90_day":0,"order_qty_120_day":0,"overstocked":false,"total_produced_planned_quantity":0,"revenue_within_7_days":0,"revenue_within_14_days":0,"revenue_within_30_days":0,"revenue_within_45_days":0,"revenue_within_60_days":0,"revenue_within_90_days":0,"revenue_within_120_days":0,"revenue_within_180_days":0,"revenue_within_365_days":0,"sale_mtd":0,"sale_ytd":0,"revenue_mtd":0,"revenue_ytd":0,"sale_last_january":0,"sale_last_february":0,"sale_last_march":0,"sale_last_april":0,"sale_last_may":0,"sale_last_june":0,"sale_last_july":0,"sale_last_august":0,"sale_last_september":0,"sale_last_october":0,"sale_last_november":0,"sale_last_december":0,"revenue_last_january":0,"revenue_last_february":0,"revenue_last_march":0,"revenue_last_april":0,"revenue_last_may":0,"revenue_last_june":0,"revenue_last_july":0,"revenue_last_august":0,"revenue_last_september":0,"revenue_last_october":0,"revenue_last_november":0,"revenue_last_december":0,"refreshed_at":"2026-01-28T13:30:03.000000Z","created_at":"2026-01-28T13:30:03.000000Z","updated_at":"2026-01-28T13:30:03.000000Z"},{"id":1065,"rfq_id":2991,"product_name":"04112024","internal_sku":"04112024","type":"PRODUCT","current_avg_cost":0,"total_inventory_value":0,"recent_avg_cogs":0,"latest_cogs":0,"cost_complexity":0,"inventory_value":0,"reorder_value_required":0,"annual_stock_turn":0,"cogs_variance":0,"cogs_variance_percent":0,"days_of_cash_tied_up":0,"cost_inflation_trend":0,"obsolescence_risk_value":0,"qty_onhand":0,"qty_incoming":0,"qty_pending":1,"sale_within_7_days":0,"sale_within_14_days":0,"sale_within_30_days":0,"sale_within_45_days":0,"sale_within_60_days":0,"sale_within_90_days":0,"sale_within_120_days":0,"sale_within_180_days":0,"sale_within_365_days":0,"sale_velocity_7_days":0,"sale_velocity_14_days":0,"sale_velocity_30_days":0,"sale_velocity_45_days":0,"sale_velocity_60_days":0,"sale_velocity_90_days":0,"sale_velocity_120_days":0,"sale_velocity_180_days":0,"sale_velocity_365_days":0,"last_7_days_trend":0,"available_and_ordered_qty":-1,"available_qty":-1,"quantity_available":-1,"days_onhand_7_day_vel":null,"days_onhand_14_day_vel":null,"days_onhand_30_day_vel":null,"days_onhand_45_day_vel":null,"days_onhand_60_day_vel":null,"lead_time":40,"moq":0,"safety_stock":0,"reorder_point":0,"recommend_order_date":null,"recommend_order_date_14day":null,"recommend_order_date_30day":null,"recommend_order_date_45day":null,"recommend_order_date_90day":null,"recommend_order_date_120day":null,"order_qty_lead_time_safety":0,"order_qty_30_day":0,"order_qty_45_day":0,"order_qty_60_day":0,"order_qty_90_day":0,"order_qty_120_day":0,"overstocked":false,"total_produced_planned_quantity":0,"revenue_within_7_days":0,"revenue_within_14_days":0,"revenue_within_30_days":0,"revenue_within_45_days":0,"revenue_within_60_days":0,"revenue_within_90_days":0,"revenue_within_120_days":0,"revenue_within_180_days":0,"revenue_within_365_days":0,"sale_mtd":0,"sale_ytd":0,"revenue_mtd":0,"revenue_ytd":0,"sale_last_january":0,"sale_last_february":0,"sale_last_march":0,"sale_last_april":0,"sale_last_may":0,"sale_last_june":0,"sale_last_july":0,"sale_last_august":0,"sale_last_september":0,"sale_last_october":0,"sale_last_november":0,"sale_last_december":0,"revenue_last_january":0,"revenue_last_february":0,"revenue_last_march":0,"revenue_last_april":0,"revenue_last_may":0,"revenue_last_june":0,"revenue_last_july":0,"revenue_last_august":0,"revenue_last_september":0,"revenue_last_october":0,"revenue_last_november":0,"revenue_last_december":0,"refreshed_at":"2026-01-28T13:30:03.000000Z","created_at":"2026-01-28T13:30:03.000000Z","updated_at":"2026-01-28T13:30:03.000000Z"},{"id":933,"rfq_id":2859,"product_name":"04112024-b","internal_sku":"04112024-b","type":"PRODUCT","current_avg_cost":0,"total_inventory_value":0,"recent_avg_cogs":0,"latest_cogs":0,"cost_complexity":0,"inventory_value":0,"reorder_value_required":0,"annual_stock_turn":0,"cogs_variance":0,"cogs_variance_percent":0,"days_of_cash_tied_up":0,"cost_inflation_trend":0,"obsolescence_risk_value":0,"qty_onhand":0,"qty_incoming":0,"qty_pending":50,"sale_within_7_days":0,"sale_within_14_days":0,"sale_within_30_days":0,"sale_within_45_days":0,"sale_within_60_days":0,"sale_within_90_days":0,"sale_within_120_days":0,"sale_within_180_days":0,"sale_within_365_days":0,"sale_velocity_7_days":0,"sale_velocity_14_days":0,"sale_velocity_30_days":0,"sale_velocity_45_days":0,"sale_velocity_60_days":0,"sale_velocity_90_days":0,"sale_velocity_120_days":0,"sale_velocity_180_days":0,"sale_velocity_365_days":0,"last_7_days_trend":0,"available_and_ordered_qty":-50,"available_qty":-50,"quantity_available":-50,"days_onhand_7_day_vel":null,"days_onhand_14_day_vel":null,"days_onhand_30_day_vel":null,"days_onhand_45_day_vel":null,"days_onhand_60_day_vel":null,"lead_time":40,"moq":0,"safety_stock":0,"reorder_point":0,"recommend_order_date":null,"recommend_order_date_14day":null,"recommend_order_date_30day":null,"recommend_order_date_45day":null,"recommend_order_date_90day":null,"recommend_order_date_120day":null,"order_qty_lead_time_safety":0,"order_qty_30_day":0,"order_qty_45_day":0,"order_qty_60_day":0,"order_qty_90_day":0,"order_qty_120_day":0,"overstocked":false,"total_produced_planned_quantity":0,"revenue_within_7_days":0,"revenue_within_14_days":0,"revenue_within_30_days":0,"revenue_within_45_days":0,"revenue_within_60_days":0,"revenue_within_90_days":0,"revenue_within_120_days":0,"revenue_within_180_days":0,"revenue_within_365_days":0,"sale_mtd":0,"sale_ytd":0,"revenue_mtd":0,"revenue_ytd":0,"sale_last_january":0,"sale_last_february":0,"sale_last_march":0,"sale_last_april":0,"sale_last_may":0,"sale_last_june":0,"sale_last_july":0,"sale_last_august":0,"sale_last_september":0,"sale_last_october":0,"sale_last_november":0,"sale_last_december":0,"revenue_last_january":0,"revenue_last_february":0,"revenue_last_march":0,"revenue_last_april":0,"revenue_last_may":0,"revenue_last_june":0,"revenue_last_july":0,"revenue_last_august":0,"revenue_last_september":0,"revenue_last_october":0,"revenue_last_november":0,"revenue_last_december":0,"refreshed_at":"2026-01-28T13:30:03.000000Z","created_at":"2026-01-28T13:30:03.000000Z","updated_at":"2026-01-28T13:30:03.000000Z"},{"id":934,"rfq_id":2860,"product_name":"04112024-c","internal_sku":"04112024-c","type":"PRODUCT","current_avg_cost":0,"total_inventory_value":0,"recent_avg_cogs":0,"latest_cogs":0,"cost_complexity":0,"inventory_value":0,"reorder_value_required":0,"annual_stock_turn":0,"cogs_variance":0,"cogs_variance_percent":0,"days_of_cash_tied_up":0,"cost_inflation_trend":0,"obsolescence_risk_value":0,"qty_onhand":0,"qty_incoming":0,"qty_pending":26,"sale_within_7_days":0,"sale_within_14_days":0,"sale_within_30_days":0,"sale_within_45_days":0,"sale_within_60_days":0,"sale_within_90_days":0,"sale_within_120_days":0,"sale_within_180_days":0,"sale_within_365_days":0,"sale_velocity_7_days":0,"sale_velocity_14_days":0,"sale_velocity_30_days":0,"sale_velocity_45_days":0,"sale_velocity_60_days":0,"sale_velocity_90_days":0,"sale_velocity_120_days":0,"sale_velocity_180_days":0,"sale_velocity_365_days":0,"last_7_days_trend":0,"available_and_ordered_qty":-26,"available_qty":-26,"quantity_available":-26,"days_onhand_7_day_vel":null,"days_onhand_14_day_vel":null,"days_onhand_30_day_vel":null,"days_onhand_45_day_vel":null,"days_onhand_60_day_vel":null,"lead_time":40,"moq":0,"safety_stock":0,"reorder_point":0,"recommend_order_date":null,"recommend_order_date_14day":null,"recommend_order_date_30day":null,"recommend_order_date_45day":null,"recommend_order_date_90day":null,"recommend_order_date_120day":null,"order_qty_lead_time_safety":0,"order_qty_30_day":0,"order_qty_45_day":0,"order_qty_60_day":0,"order_qty_90_day":0,"order_qty_120_day":0,"overstocked":false,"total_produced_planned_quantity":0,"revenue_within_7_days":0,"revenue_within_14_days":0,"revenue_within_30_days":0,"revenue_within_45_days":0,"revenue_within_60_days":0,"revenue_within_90_days":0,"revenue_within_120_days":0,"revenue_within_180_days":0,"revenue_within_365_days":0,"sale_mtd":0,"sale_ytd":0,"revenue_mtd":0,"revenue_ytd":0,"sale_last_january":0,"sale_last_february":0,"sale_last_march":0,"sale_last_april":0,"sale_last_may":0,"sale_last_june":0,"sale_last_july":0,"sale_last_august":0,"sale_last_september":0,"sale_last_october":0,"sale_last_november":0,"sale_last_december":0,"revenue_last_january":0,"revenue_last_february":0,"revenue_last_march":0,"revenue_last_april":0,"revenue_last_may":0,"revenue_last_june":0,"revenue_last_july":0,"revenue_last_august":0,"revenue_last_september":0,"revenue_last_october":0,"revenue_last_november":0,"revenue_last_december":0,"refreshed_at":"2026-01-28T13:30:03.000000Z","created_at":"2026-01-28T13:30:03.000000Z","updated_at":"2026-01-28T13:30:03.000000Z"},{"id":1066,"rfq_id":2992,"product_name":"04292024","internal_sku":"04292024","type":"PRODUCT","current_avg_cost":0,"total_inventory_value":0,"recent_avg_cogs":0,"latest_cogs":0,"cost_complexity":0,"inventory_value":0,"reorder_value_required":0,"annual_stock_turn":0,"cogs_variance":0,"cogs_variance_percent":0,"days_of_cash_tied_up":0,"cost_inflation_trend":0,"obsolescence_risk_value":0,"qty_onhand":0,"qty_incoming":0,"qty_pending":1,"sale_within_7_days":0,"sale_within_14_days":0,"sale_within_30_days":0,"sale_within_45_days":0,"sale_within_60_days":0,"sale_within_90_days":0,"sale_within_120_days":0,"sale_within_180_days":0,"sale_within_365_days":0,"sale_velocity_7_days":0,"sale_velocity_14_days":0,"sale_velocity_30_days":0,"sale_velocity_45_days":0,"sale_velocity_60_days":0,"sale_velocity_90_days":0,"sale_velocity_120_days":0,"sale_velocity_180_days":0,"sale_velocity_365_days":0,"last_7_days_trend":0,"available_and_ordered_qty":-1,"available_qty":-1,"quantity_available":-1,"days_onhand_7_day_vel":null,"days_onhand_14_day_vel":null,"days_onhand_30_day_vel":null,"days_onhand_45_day_vel":null,"days_onhand_60_day_vel":null,"lead_time":40,"moq":0,"safety_stock":0,"reorder_point":0,"recommend_order_date":null,"recommend_order_date_14day":null,"recommend_order_date_30day":null,"recommend_order_date_45day":null,"recommend_order_date_90day":null,"recommend_order_date_120day":null,"order_qty_lead_time_safety":0,"order_qty_30_day":0,"order_qty_45_day":0,"order_qty_60_day":0,"order_qty_90_day":0,"order_qty_120_day":0,"overstocked":false,"total_produced_planned_quantity":0,"revenue_within_7_days":0,"revenue_within_14_days":0,"revenue_within_30_days":0,"revenue_within_45_days":0,"revenue_within_60_days":0,"revenue_within_90_days":0,"revenue_within_120_days":0,"revenue_within_180_days":0,"revenue_within_365_days":0,"sale_mtd":0,"sale_ytd":0,"revenue_mtd":0,"revenue_ytd":0,"sale_last_january":0,"sale_last_february":0,"sale_last_march":0,"sale_last_april":0,"sale_last_may":0,"sale_last_june":0,"sale_last_july":0,"sale_last_august":0,"sale_last_september":0,"sale_last_october":0,"sale_last_november":0,"sale_last_december":0,"revenue_last_january":0,"revenue_last_february":0,"revenue_last_march":0,"revenue_last_april":0,"revenue_last_may":0,"revenue_last_june":0,"revenue_last_july":0,"revenue_last_august":0,"revenue_last_september":0,"revenue_last_october":0,"revenue_last_november":0,"revenue_last_december":0,"refreshed_at":"2026-01-28T13:30:03.000000Z","created_at":"2026-01-28T13:30:03.000000Z","updated_at":"2026-01-28T13:30:03.000000Z"},{"id":394,"rfq_id":2320,"product_name":"070418 Polo SS - 2XL","internal_sku":"APTV-0018-POLO-M-2XL","type":"PRODUCT","current_avg_cost":0,"total_inventory_value":0,"recent_avg_cogs":0,"latest_cogs":0,"cost_complexity":0,"inventory_value":0,"reorder_value_required":0,"annual_stock_turn":0,"cogs_variance":0,"cogs_variance_percent":0,"days_of_cash_tied_up":0,"cost_inflation_trend":0,"obsolescence_risk_value":0,"qty_onhand":0,"qty_incoming":0,"qty_pending":0,"sale_within_7_days":0,"sale_within_14_days":0,"sale_within_30_days":0,"sale_within_45_days":0,"sale_within_60_days":0,"sale_within_90_days":0,"sale_within_120_days":0,"sale_within_180_days":0,"sale_within_365_days":0,"sale_velocity_7_days":0,"sale_velocity_14_days":0,"sale_velocity_30_days":0,"sale_velocity_45_days":0,"sale_velocity_60_days":0,"sale_velocity_90_days":0,"sale_velocity_120_days":0,"sale_velocity_180_days":0,"sale_velocity_365_days":0,"last_7_days_trend":0,"available_and_ordered_qty":0,"available_qty":0,"quantity_available":0,"days_onhand_7_day_vel":null,"days_onhand_14_day_vel":null,"days_onhand_30_day_vel":null,"days_onhand_45_day_vel":null,"days_onhand_60_day_vel":null,"lead_time":40,"moq":0,"safety_stock":0,"reorder_point":0,"recommend_order_date":null,"recommend_order_date_14day":null,"recommend_order_date_30day":null,"recommend_order_date_45day":null,"recommend_order_date_90day":null,"recommend_order_date_120day":null,"order_qty_lead_time_safety":0,"order_qty_30_day":0,"order_qty_45_day":0,"order_qty_60_day":0,"order_qty_90_day":0,"order_qty_120_day":0,"overstocked":false,"total_produced_planned_quantity":0,"revenue_within_7_days":0,"revenue_within_14_days":0,"revenue_within_30_days":0,"revenue_within_45_days":0,"revenue_within_60_days":0,"revenue_within_90_days":0,"revenue_within_120_days":0,"revenue_within_180_days":0,"revenue_within_365_days":0,"sale_mtd":0,"sale_ytd":0,"revenue_mtd":0,"revenue_ytd":0,"sale_last_january":0,"sale_last_february":0,"sale_last_march":0,"sale_last_april":0,"sale_last_may":0,"sale_last_june":0,"sale_last_july":0,"sale_last_august":0,"sale_last_september":0,"sale_last_october":0,"sale_last_november":0,"sale_last_december":0,"revenue_last_january":0,"revenue_last_february":0,"revenue_last_march":0,"revenue_last_april":0,"revenue_last_may":0,"revenue_last_june":0,"revenue_last_july":0,"revenue_last_august":0,"revenue_last_september":0,"revenue_last_october":0,"revenue_last_november":0,"revenue_last_december":0,"refreshed_at":"2026-01-28T13:30:03.000000Z","created_at":"2026-01-28T13:30:03.000000Z","updated_at":"2026-01-28T13:30:03.000000Z"},{"id":550,"rfq_id":2476,"product_name":"070418 Polo SS - M","internal_sku":"APTV-0018-POLO-M-M","type":"PRODUCT","current_avg_cost":0,"total_inventory_value":0,"recent_avg_cogs":0,"latest_cogs":0,"cost_complexity":0,"inventory_value":0,"reorder_value_required":0,"annual_stock_turn":0,"cogs_variance":0,"cogs_variance_percent":0,"days_of_cash_tied_up":0,"cost_inflation_trend":0,"obsolescence_risk_value":0,"qty_onhand":0,"qty_incoming":0,"qty_pending":0,"sale_within_7_days":0,"sale_within_14_days":0,"sale_within_30_days":0,"sale_within_45_days":0,"sale_within_60_days":0,"sale_within_90_days":0,"sale_within_120_days":0,"sale_within_180_days":0,"sale_within_365_days":0,"sale_velocity_7_days":0,"sale_velocity_14_days":0,"sale_velocity_30_days":0,"sale_velocity_45_days":0,"sale_velocity_60_days":0,"sale_velocity_90_days":0,"sale_velocity_120_days":0,"sale_velocity_180_days":0,"sale_velocity_365_days":0,"last_7_days_trend":0,"available_and_ordered_qty":0,"available_qty":0,"quantity_available":0,"days_onhand_7_day_vel":null,"days_onhand_14_day_vel":null,"days_onhand_30_day_vel":null,"days_onhand_45_day_vel":null,"days_onhand_60_day_vel":null,"lead_time":40,"moq":0,"safety_stock":0,"reorder_point":0,"recommend_order_date":null,"recommend_order_date_14day":null,"recommend_order_date_30day":null,"recommend_order_date_45day":null,"recommend_order_date_90day":null,"recommend_order_date_120day":null,"order_qty_lead_time_safety":0,"order_qty_30_day":0,"order_qty_45_day":0,"order_qty_60_day":0,"order_qty_90_day":0,"order_qty_120_day":0,"overstocked":false,"total_produced_planned_quantity":0,"revenue_within_7_days":0,"revenue_within_14_days":0,"revenue_within_30_days":0,"revenue_within_45_days":0,"revenue_within_60_days":0,"revenue_within_90_days":0,"revenue_within_120_days":0,"revenue_within_180_days":0,"revenue_within_365_days":0,"sale_mtd":0,"sale_ytd":0,"revenue_mtd":0,"revenue_ytd":0,"sale_last_january":0,"sale_last_february":0,"sale_last_march":0,"sale_last_april":0,"sale_last_may":0,"sale_last_june":0,"sale_last_july":0,"sale_last_august":0,"sale_last_september":0,"sale_last_october":0,"sale_last_november":0,"sale_last_december":0,"revenue_last_january":0,"revenue_last_february":0,"revenue_last_march":0,"revenue_last_april":0,"revenue_last_may":0,"revenue_last_june":0,"revenue_last_july":0,"revenue_last_august":0,"revenue_last_september":0,"revenue_last_october":0,"revenue_last_november":0,"revenue_last_december":0,"refreshed_at":"2026-01-28T13:30:03.000000Z","created_at":"2026-01-28T13:30:03.000000Z","updated_at":"2026-01-28T13:30:03.000000Z"}],"links":{"first":"http:\/\/blue.localhost:8000\/api\/forecast-data?page=1","last":"http:\/\/blue.localhost:8000\/api\/forecast-data?page=116","prev":null,"next":"http:\/\/blue.localhost:8000\/api\/forecast-data?page=2"},"meta":{"current_page":1,"from":1,"last_page":116,"path":"http:\/\/blue.localhost:8000\/api\/forecast-data","per_page":10,"to":10,"total":1154}}